{
  "resolution": "main",
  "tree": {
    "src": "https://raw.githubusercontent.com/DefinitelyTyped/DefinitelyTyped/73f02e190b0647ba30353afdf07f6ee9443fbb80/sequelize/sequelize.d.ts",
    "raw": "registry:dt/sequelize#3.4.1+20160810131215",
    "typings": "https://raw.githubusercontent.com/DefinitelyTyped/DefinitelyTyped/73f02e190b0647ba30353afdf07f6ee9443fbb80/sequelize/sequelize.d.ts"
  }
}
