{
  "globalDependencies": {
    "bluebird": "registry:dt/bluebird#3.0.0+20160907110115",
    "express": "registry:dt/express#4.0.0+20160708185218",
    "lodash": "registry:dt/lodash#4.14.0+20160919145112",
    "node": "registry:dt/node#6.0.0+20160925070332",
    "sequelize": "registry:dt/sequelize#3.4.1+20160815132916",
    "validator": "registry:dt/validator#5.7.0+20160925114326"
  }
}
